{
  "name": "lcgdm-voms",
  "version": "0.4.4",
  "author": "CERNOps",
  "summary": "Resources for managing a gLite Virtual Organization Membership Service (VOMS) client and server installation'",
  "license": "Apache-2.0",
  "source": "https://gitlab.cern.ch/ai/it-puppet-module-voms",
  "project_page": "https://gitlab.cern.ch/ai/it-puppet-module-voms",
  "issues_url": "https://github.com/cern-it-sdc-id/puppet-voms/issues",
  "dependencies": [
    {
      "name": "puppetlabs/stdlib",
      "version_requirement": ">= 2.0.0"
    }
  ],
  "data_provider": null,
  "description": "This modules provides classes and definitions required to manage and properly configure a gLite service or client supporting authorization using the gLite Virtual Organization Membership Service (VOMS).",
  "operatingsystem_support": [
    {
      "operatingsystem": "RedHat",
      "operatingsystemrelease": [
        "6",
        "7",
        "8"
      ]
    },
    {
      "operatingsystem": "CentOS",
      "operatingsystemrelease": [
        "6",
        "7",
        "8"
      ]
    }
  ]
}
