\relax 
\bibstyle{woc}
\citation{xrd}
\citation{dpmfuture}
\citation{dome}
\select@language{english}
\@writefile{toc}{\select@language{english}}
\@writefile{lof}{\select@language{english}}
\@writefile{lot}{\select@language{english}}
\@writefile{toc}{\contentsline {section}{\numberline {1}Introduction}{1}}
\newlabel{intro}{{1}{1}}
\citation{srm}
\@writefile{toc}{\contentsline {section}{\numberline {2}DOME}{2}}
\@writefile{toc}{\contentsline {subsection}{\numberline {2.1}From spacetokens to quota tokens}{2}}
\@writefile{toc}{\contentsline {section}{\numberline {3}DOME Architecture}{3}}
\@writefile{lof}{\contentsline {figure}{\numberline {1}{\ignorespaces Simplified diagram of DOME in a disk node.}}{3}}
\newlabel{figdomedisk}{{1}{3}}
\@writefile{lof}{\contentsline {figure}{\numberline {2}{\ignorespaces Simplified diagram of DOME in a head node.}}{4}}
\newlabel{figdomehead}{{2}{4}}
\@writefile{toc}{\contentsline {section}{\numberline {4}Storage Resource Reporting}{4}}
\@writefile{toc}{\contentsline {section}{\numberline {5}Caching with volatile pools}{4}}
\citation{davix}
\citation{rfio}
\citation{yaim}
\citation{puppet}
\@writefile{toc}{\contentsline {section}{\numberline {6}Admin interface: dmlite-shell}{5}}
\@writefile{toc}{\contentsline {subsection}{\numberline {6.1}Drain via HTTP}{5}}
\citation{puppetforge}
\citation{puppetdpm}
\@writefile{toc}{\contentsline {section}{\numberline {7}Configuration tool: Puppet}{6}}
\@writefile{toc}{\contentsline {section}{\numberline {8}Transitioning steps}{6}}
\citation{libshift}
\bibcite{xrdwan}{{1}{}{{}}{{}}}
\bibcite{xrd}{{2}{}{{}}{{}}}
\bibcite{dpmfuture}{{3}{}{{}}{{}}}
\bibcite{dpmnew}{{4}{}{{}}{{}}}
\bibcite{dome}{{5}{}{{}}{{}}}
\bibcite{fastcgi}{{6}{}{{}}{{}}}
\bibcite{srm}{{7}{}{{}}{{}}}
\bibcite{rfio}{{8}{}{{}}{{}}}
\@writefile{toc}{\contentsline {section}{\numberline {9}End of support for legacy components}{7}}
\@writefile{toc}{\contentsline {section}{\numberline {10}Conclusion}{7}}
\bibcite{libshift}{{9}{}{{}}{{}}}
\bibcite{davix}{{10}{}{{}}{{}}}
\bibcite{yaim}{{11}{}{{}}{{}}}
\bibcite{puppet}{{12}{}{{}}{{}}}
\bibcite{puppetforge}{{13}{}{{}}{{}}}
\bibcite{puppetdpm}{{14}{}{{}}{{}}}
\providecommand\NAT@force@numbers{}\NAT@force@numbers
